^C:\USERS\TEO ARGENTIERI\DOCUMENTS\QTPROJECT\BDBAPP\CREATECONTAINER.CPP|C:\USERS\TEO ARGENTIERI\DOCUMENTS\QTPROJECT\BDBAPP\DBWINDOW.CPP|C:\USERS\TEO ARGENTIERI\DOCUMENTS\QTPROJECT\BDBAPP\DEBUG\MOC_CREATECONTAINER.CPP|C:\USERS\TEO ARGENTIERI\DOCUMENTS\QTPROJECT\BDBAPP\DEBUG\MOC_DBWINDOW.CPP|C:\USERS\TEO ARGENTIERI\DOCUMENTS\QTPROJECT\BDBAPP\DEBUG\MOC_TREEMODEL.CPP|C:\USERS\TEO ARGENTIERI\DOCUMENTS\QTPROJECT\BDBAPP\DEBUG\MOC_TREERESULTS.CPP|C:\USERS\TEO ARGENTIERI\DOCUMENTS\QTPROJECT\BDBAPP\LOADER.CPP|C:\USERS\TEO ARGENTIERI\DOCUMENTS\QTPROJECT\BDBAPP\MAIN.CPP|C:\USERS\TEO ARGENTIERI\DOCUMENTS\QTPROJECT\BDBAPP\QUERYMANAGER.CPP|C:\USERS\TEO ARGENTIERI\DOCUMENTS\QTPROJECT\BDBAPP\TREEITEM.CPP|C:\USERS\TEO ARGENTIERI\DOCUMENTS\QTPROJECT\BDBAPP\TREEMODEL.CPP|C:\USERS\TEO ARGENTIERI\DOCUMENTS\QTPROJECT\BDBAPP\TREERESULTS.CPP
C:\USERS\TEO ARGENTIERI\DOCUMENTS\QTPROJECT\BDBAPP\DEBUG\MOC_TREERESULTS.OBJ
C:\USERS\TEO ARGENTIERI\DOCUMENTS\QTPROJECT\BDBAPP\DEBUG\MOC_TREEMODEL.OBJ
C:\USERS\TEO ARGENTIERI\DOCUMENTS\QTPROJECT\BDBAPP\DEBUG\MOC_DBWINDOW.OBJ
C:\USERS\TEO ARGENTIERI\DOCUMENTS\QTPROJECT\BDBAPP\DEBUG\MOC_CREATECONTAINER.OBJ
C:\USERS\TEO ARGENTIERI\DOCUMENTS\QTPROJECT\BDBAPP\DEBUG\TREERESULTS.OBJ
C:\USERS\TEO ARGENTIERI\DOCUMENTS\QTPROJECT\BDBAPP\DEBUG\TREEMODEL.OBJ
C:\USERS\TEO ARGENTIERI\DOCUMENTS\QTPROJECT\BDBAPP\DEBUG\TREEITEM.OBJ
C:\USERS\TEO ARGENTIERI\DOCUMENTS\QTPROJECT\BDBAPP\DEBUG\QUERYMANAGER.OBJ
C:\USERS\TEO ARGENTIERI\DOCUMENTS\QTPROJECT\BDBAPP\DEBUG\MAIN.OBJ
C:\USERS\TEO ARGENTIERI\DOCUMENTS\QTPROJECT\BDBAPP\DEBUG\LOADER.OBJ
C:\USERS\TEO ARGENTIERI\DOCUMENTS\QTPROJECT\BDBAPP\DEBUG\DBWINDOW.OBJ
C:\USERS\TEO ARGENTIERI\DOCUMENTS\QTPROJECT\BDBAPP\DEBUG\CREATECONTAINER.OBJ
^C:\USERS\TEO ARGENTIERI\DOCUMENTS\QTPROJECT\BDBAPP\TREEITEM.CPP
C:\USERS\TEO ARGENTIERI\DOCUMENTS\QTPROJECT\BDBAPP\DEBUG\VC100.PDB
^C:\USERS\TEO ARGENTIERI\DOCUMENTS\QTPROJECT\BDBAPP\DEBUG\MOC_CREATECONTAINER.CPP
C:\USERS\TEO ARGENTIERI\DOCUMENTS\QTPROJECT\BDBAPP\DEBUG\VC100.PDB
^C:\USERS\TEO ARGENTIERI\DOCUMENTS\QTPROJECT\BDBAPP\DBWINDOW.CPP|C:\USERS\TEO ARGENTIERI\DOCUMENTS\QTPROJECT\BDBAPP\DEBUG\MOC_DBWINDOW.CPP|C:\USERS\TEO ARGENTIERI\DOCUMENTS\QTPROJECT\BDBAPP\LOADER.CPP|C:\USERS\TEO ARGENTIERI\DOCUMENTS\QTPROJECT\BDBAPP\MAIN.CPP|C:\USERS\TEO ARGENTIERI\DOCUMENTS\QTPROJECT\BDBAPP\QUERYMANAGER.CPP
C:\USERS\TEO ARGENTIERI\DOCUMENTS\QTPROJECT\BDBAPP\DEBUG\QUERYMANAGER.OBJ
C:\USERS\TEO ARGENTIERI\DOCUMENTS\QTPROJECT\BDBAPP\DEBUG\MAIN.OBJ
C:\USERS\TEO ARGENTIERI\DOCUMENTS\QTPROJECT\BDBAPP\DEBUG\LOADER.OBJ
C:\USERS\TEO ARGENTIERI\DOCUMENTS\QTPROJECT\BDBAPP\DEBUG\MOC_DBWINDOW.OBJ
C:\USERS\TEO ARGENTIERI\DOCUMENTS\QTPROJECT\BDBAPP\DEBUG\DBWINDOW.OBJ
^C:\USERS\TEO ARGENTIERI\DOCUMENTS\QTPROJECT\BDBAPP\LOADER.CPP
C:\USERS\TEO ARGENTIERI\DOCUMENTS\QTPROJECT\BDBAPP\DEBUG\LOADER.OBJ
C:\USERS\TEO ARGENTIERI\DOCUMENTS\QTPROJECT\BDBAPP\DEBUG\VC100.PDB
^C:\USERS\TEO ARGENTIERI\DOCUMENTS\QTPROJECT\BDBAPP\DBWINDOW.CPP|C:\USERS\TEO ARGENTIERI\DOCUMENTS\QTPROJECT\BDBAPP\QUERYMANAGER.CPP
C:\USERS\TEO ARGENTIERI\DOCUMENTS\QTPROJECT\BDBAPP\DEBUG\QUERYMANAGER.OBJ
C:\USERS\TEO ARGENTIERI\DOCUMENTS\QTPROJECT\BDBAPP\DEBUG\DBWINDOW.OBJ
^C:\USERS\TEO ARGENTIERI\DOCUMENTS\QTPROJECT\BDBAPP\CREATECONTAINER.CPP|C:\USERS\TEO ARGENTIERI\DOCUMENTS\QTPROJECT\BDBAPP\DBWINDOW.CPP|C:\USERS\TEO ARGENTIERI\DOCUMENTS\QTPROJECT\BDBAPP\DEBUG\MOC_DBWINDOW.CPP|C:\USERS\TEO ARGENTIERI\DOCUMENTS\QTPROJECT\BDBAPP\DEBUG\MOC_TREEMODEL.CPP|C:\USERS\TEO ARGENTIERI\DOCUMENTS\QTPROJECT\BDBAPP\DEBUG\MOC_TREERESULTS.CPP|C:\USERS\TEO ARGENTIERI\DOCUMENTS\QTPROJECT\BDBAPP\MAIN.CPP|C:\USERS\TEO ARGENTIERI\DOCUMENTS\QTPROJECT\BDBAPP\QUERYMANAGER.CPP|C:\USERS\TEO ARGENTIERI\DOCUMENTS\QTPROJECT\BDBAPP\TREEMODEL.CPP|C:\USERS\TEO ARGENTIERI\DOCUMENTS\QTPROJECT\BDBAPP\TREERESULTS.CPP
C:\USERS\TEO ARGENTIERI\DOCUMENTS\QTPROJECT\BDBAPP\DEBUG\TREERESULTS.OBJ
C:\USERS\TEO ARGENTIERI\DOCUMENTS\QTPROJECT\BDBAPP\DEBUG\TREEMODEL.OBJ
C:\USERS\TEO ARGENTIERI\DOCUMENTS\QTPROJECT\BDBAPP\DEBUG\QUERYMANAGER.OBJ
C:\USERS\TEO ARGENTIERI\DOCUMENTS\QTPROJECT\BDBAPP\DEBUG\MAIN.OBJ
C:\USERS\TEO ARGENTIERI\DOCUMENTS\QTPROJECT\BDBAPP\DEBUG\MOC_TREERESULTS.OBJ
C:\USERS\TEO ARGENTIERI\DOCUMENTS\QTPROJECT\BDBAPP\DEBUG\MOC_TREEMODEL.OBJ
C:\USERS\TEO ARGENTIERI\DOCUMENTS\QTPROJECT\BDBAPP\DEBUG\MOC_DBWINDOW.OBJ
C:\USERS\TEO ARGENTIERI\DOCUMENTS\QTPROJECT\BDBAPP\DEBUG\DBWINDOW.OBJ
C:\USERS\TEO ARGENTIERI\DOCUMENTS\QTPROJECT\BDBAPP\DEBUG\CREATECONTAINER.OBJ
^C:\USERS\TEO ARGENTIERI\DOCUMENTS\QTPROJECT\BDBAPP\CREATECONTAINER.CPP
C:\USERS\TEO ARGENTIERI\DOCUMENTS\QTPROJECT\BDBAPP\DEBUG\VC100.PDB
^C:\USERS\TEO ARGENTIERI\DOCUMENTS\QTPROJECT\BDBAPP\DEBUG\MOC_TREEMODEL.CPP
C:\USERS\TEO ARGENTIERI\DOCUMENTS\QTPROJECT\BDBAPP\DEBUG\VC100.PDB
^C:\USERS\TEO ARGENTIERI\DOCUMENTS\QTPROJECT\BDBAPP\DEBUG\MOC_TREERESULTS.CPP
C:\USERS\TEO ARGENTIERI\DOCUMENTS\QTPROJECT\BDBAPP\DEBUG\VC100.PDB
^C:\USERS\TEO ARGENTIERI\DOCUMENTS\QTPROJECT\BDBAPP\TREEMODEL.CPP
C:\USERS\TEO ARGENTIERI\DOCUMENTS\QTPROJECT\BDBAPP\DEBUG\VC100.PDB
^C:\USERS\TEO ARGENTIERI\DOCUMENTS\QTPROJECT\BDBAPP\TREERESULTS.CPP
C:\USERS\TEO ARGENTIERI\DOCUMENTS\QTPROJECT\BDBAPP\DEBUG\VC100.PDB
^C:\USERS\TEO ARGENTIERI\DOCUMENTS\QTPROJECT\BDBAPP\QUERYMANAGER.CPP
C:\USERS\TEO ARGENTIERI\DOCUMENTS\QTPROJECT\BDBAPP\DEBUG\QUERYMANAGER.OBJ
C:\USERS\TEO ARGENTIERI\DOCUMENTS\QTPROJECT\BDBAPP\DEBUG\VC100.PDB
^C:\USERS\TEO ARGENTIERI\DOCUMENTS\QTPROJECT\BDBAPP\DBWINDOW.CPP|C:\USERS\TEO ARGENTIERI\DOCUMENTS\QTPROJECT\BDBAPP\DEBUG\MOC_DBWINDOW.CPP|C:\USERS\TEO ARGENTIERI\DOCUMENTS\QTPROJECT\BDBAPP\MAIN.CPP
C:\USERS\TEO ARGENTIERI\DOCUMENTS\QTPROJECT\BDBAPP\DEBUG\MAIN.OBJ
C:\USERS\TEO ARGENTIERI\DOCUMENTS\QTPROJECT\BDBAPP\DEBUG\MOC_DBWINDOW.OBJ
C:\USERS\TEO ARGENTIERI\DOCUMENTS\QTPROJECT\BDBAPP\DEBUG\DBWINDOW.OBJ
^C:\USERS\TEO ARGENTIERI\DOCUMENTS\QTPROJECT\BDBAPP\DEBUG\MOC_DBWINDOW.CPP
C:\USERS\TEO ARGENTIERI\DOCUMENTS\QTPROJECT\BDBAPP\DEBUG\VC100.PDB
^C:\USERS\TEO ARGENTIERI\DOCUMENTS\QTPROJECT\BDBAPP\MAIN.CPP
C:\USERS\TEO ARGENTIERI\DOCUMENTS\QTPROJECT\BDBAPP\DEBUG\VC100.PDB
^C:\USERS\TEO ARGENTIERI\DOCUMENTS\QTPROJECT\BDBAPP\DBWINDOW.CPP
C:\USERS\TEO ARGENTIERI\DOCUMENTS\QTPROJECT\BDBAPP\DEBUG\DBWINDOW.OBJ
C:\USERS\TEO ARGENTIERI\DOCUMENTS\QTPROJECT\BDBAPP\DEBUG\VC100.PDB
