^C:\USERS\TEO ARGENTIERI\DOCUMENTS\QTPROJECT\BDBAPP\DEBUG\CREATECONTAINER.OBJ|C:\USERS\TEO ARGENTIERI\DOCUMENTS\QTPROJECT\BDBAPP\DEBUG\DBWINDOW.OBJ|C:\USERS\TEO ARGENTIERI\DOCUMENTS\QTPROJECT\BDBAPP\DEBUG\LOADER.OBJ|C:\USERS\TEO ARGENTIERI\DOCUMENTS\QTPROJECT\BDBAPP\DEBUG\MAIN.OBJ|C:\USERS\TEO ARGENTIERI\DOCUMENTS\QTPROJECT\BDBAPP\DEBUG\MOC_CREATECONTAINER.OBJ|C:\USERS\TEO ARGENTIERI\DOCUMENTS\QTPROJECT\BDBAPP\DEBUG\MOC_DBWINDOW.OBJ|C:\USERS\TEO ARGENTIERI\DOCUMENTS\QTPROJECT\BDBAPP\DEBUG\MOC_TREEMODEL.OBJ|C:\USERS\TEO ARGENTIERI\DOCUMENTS\QTPROJECT\BDBAPP\DEBUG\MOC_TREERESULTS.OBJ|C:\USERS\TEO ARGENTIERI\DOCUMENTS\QTPROJECT\BDBAPP\DEBUG\QUERYMANAGER.OBJ|C:\USERS\TEO ARGENTIERI\DOCUMENTS\QTPROJECT\BDBAPP\DEBUG\TREEITEM.OBJ|C:\USERS\TEO ARGENTIERI\DOCUMENTS\QTPROJECT\BDBAPP\DEBUG\TREEMODEL.OBJ|C:\USERS\TEO ARGENTIERI\DOCUMENTS\QTPROJECT\BDBAPP\DEBUG\TREERESULTS.OBJ
C:\USERS\TEO ARGENTIERI\DOCUMENTS\QTPROJECT\BDBAPP\DEBUG\BDBXML.ILK
C:\USERS\TEO ARGENTIERI\DOCUMENTS\QTPROJECT\BDBAPP\DEBUG\BDBXML.EXE
C:\USERS\TEO ARGENTIERI\DOCUMENTS\QTPROJECT\BDBAPP\DEBUG\BDBXML.EXE.INTERMEDIATE.MANIFEST
C:\USERS\TEO ARGENTIERI\DOCUMENTS\QTPROJECT\BDBAPP\DEBUG\BDBXML.PDB
