^C:\USERS\TEO ARGENTIERI\DOCUMENTS\QTPROJECT\BDBAPP\RELEASE\CREATECONTAINER.OBJ|C:\USERS\TEO ARGENTIERI\DOCUMENTS\QTPROJECT\BDBAPP\RELEASE\DBWINDOW.OBJ|C:\USERS\TEO ARGENTIERI\DOCUMENTS\QTPROJECT\BDBAPP\RELEASE\LOADER.OBJ|C:\USERS\TEO ARGENTIERI\DOCUMENTS\QTPROJECT\BDBAPP\RELEASE\MAIN.OBJ|C:\USERS\TEO ARGENTIERI\DOCUMENTS\QTPROJECT\BDBAPP\RELEASE\MOC_CREATECONTAINER.OBJ|C:\USERS\TEO ARGENTIERI\DOCUMENTS\QTPROJECT\BDBAPP\RELEASE\MOC_DBWINDOW.OBJ|C:\USERS\TEO ARGENTIERI\DOCUMENTS\QTPROJECT\BDBAPP\RELEASE\MOC_TREEMODEL.OBJ|C:\USERS\TEO ARGENTIERI\DOCUMENTS\QTPROJECT\BDBAPP\RELEASE\MOC_TREERESULTS.OBJ|C:\USERS\TEO ARGENTIERI\DOCUMENTS\QTPROJECT\BDBAPP\RELEASE\QUERYMANAGER.OBJ|C:\USERS\TEO ARGENTIERI\DOCUMENTS\QTPROJECT\BDBAPP\RELEASE\TREEITEM.OBJ|C:\USERS\TEO ARGENTIERI\DOCUMENTS\QTPROJECT\BDBAPP\RELEASE\TREEMODEL.OBJ|C:\USERS\TEO ARGENTIERI\DOCUMENTS\QTPROJECT\BDBAPP\RELEASE\TREERESULTS.OBJ
/ERRORREPORT:PROMPT /OUT:"release\\bdbxml.exe" /INCREMENTAL:NO /NOLOGO /LIBPATH:"C:\Users\Teo Argentieri\Documents\qtProject\bdbapp\..\..\..\..\..\dbxml-6.0.18\lib\\" /LIBPATH:C:\Qt5.2.1\5.2.1\msvc2010\lib "C:\Users\Teo Argentieri\Documents\qtProject\bdbapp\..\..\..\..\..\dbxml-6.0.18\lib\\libdb61.lib" "C:\Users\Teo Argentieri\Documents\qtProject\bdbapp\..\..\..\..\..\dbxml-6.0.18\lib\\libdbxml60.lib" "C:\Users\Teo Argentieri\Documents\qtProject\bdbapp\..\..\..\..\..\dbxml-6.0.18\lib\\xerces-c_3.lib" "C:\Users\Teo Argentieri\Documents\qtProject\bdbapp\..\..\..\..\..\dbxml-6.0.18\lib\\xqilla23.lib" C:\Qt5.2.1\5.2.1\msvc2010\lib\Qt5OpenGL.lib C:\Qt5.2.1\5.2.1\msvc2010\lib\Qt5Widgets.lib C:\Qt5.2.1\5.2.1\msvc2010\lib\Qt5Xml.lib C:\Qt5.2.1\5.2.1\msvc2010\lib\Qt5Gui.lib C:\Qt5.2.1\5.2.1\msvc2010\lib\Qt5Core.lib libEGL.lib libGLESv2.lib gdi32.lib user32.lib kernel32.lib user32.lib gdi32.lib winspool.lib comdlg32.lib advapi32.lib shell32.lib ole32.lib oleaut32.lib uuid.lib odbc32.lib odbccp32.lib /MANIFEST /ManifestFile:"release\bdbxml.exe.intermediate.manifest" /MANIFESTUAC:"level='asInvoker' uiAccess='false'" /PDB:"C:\Users\Teo Argentieri\Documents\qtProject\bdbapp\release\bdbxml.pdb" /SUBSYSTEM:CONSOLE /TLBID:1 /DYNAMICBASE /NXCOMPAT /MACHINE:X86 release\createcontainer.obj
release\dbwindow.obj
release\loader.obj
release\main.obj
release\querymanager.obj
release\treeitem.obj
release\treemodel.obj
release\treeresults.obj
release\moc_createcontainer.obj
release\moc_dbwindow.obj
release\moc_treemodel.obj
release\moc_treeresults.obj "/MANIFESTDEPENDENCY:type='win32' name='Microsoft.Windows.Common-Controls' version='6.0.0.0' publicKeyToken='6595b64144ccf1df' language='*' processorArchitecture='*'" 
